<?xml version="1.0" encoding="utf-8"?>
<!-- Generator: Adobe Illustrator 15.0.0, SVG Export Plug-In . SVG Version: 6.00 Build 0)  -->
<!DOCTYPE svg PUBLIC "-//W3C//DTD SVG 1.1//EN" "http://www.w3.org/Graphics/SVG/1.1/DTD/svg11.dtd">
<svg version="1.1" id="Layer_1" xmlns="http://www.w3.org/2000/svg" xmlns:xlink="http://www.w3.org/1999/xlink" x="0px" y="0px"
	 width="28px" height="28px" viewBox="0 0 28 28" enable-background="new 0 0 28 28" xml:space="preserve">
<g>
	<path fill="#4993CF" d="M25.361,4.863c0.109,0.273-0.041,0.496-0.336,0.496H3.036c-0.295,0-0.452-0.225-0.35-0.502l1.618-4.355
		C4.407,0.227,4.732,0,5.027,0h17.838c0.295,0,0.625,0.224,0.736,0.497L25.361,4.863z M25.361,4.863"/>
	<path fill="#4993CF" d="M2.5,8.095c0,1.073,0.87,1.942,1.942,1.942c0.808,0,1.5-0.492,1.793-1.194
		c0.058-0.139,0.192-0.137,0.25,0.003c0.294,0.699,0.985,1.191,1.792,1.191c0.81,0,1.504-0.496,1.795-1.201
		c0.057-0.137,0.185-0.147,0.238-0.015c0.288,0.713,0.986,1.216,1.802,1.216s1.514-0.503,1.802-1.216
		c0.053-0.133,0.178-0.133,0.232,0c0.288,0.713,0.986,1.216,1.802,1.216c0.815,0,1.514-0.503,1.801-1.216
		c0.054-0.133,0.179-0.133,0.232,0c0.287,0.713,0.986,1.216,1.802,1.216s1.515-0.503,1.802-1.216c0.053-0.132,0.179-0.132,0.232,0
		c0.287,0.713,0.984,1.216,1.801,1.216c1.073,0,1.943-0.869,1.943-1.942V7.273c0,0,0-0.383-0.405-0.383H3.038
		C2.5,6.891,2.5,7.289,2.5,7.289V8.095z M2.5,8.095"/>
	<path fill="#4993CF" d="M24.998,26.161C24.998,26.16,24.998,26.16,24.998,26.161v-7.703c0-0.468-0.383-0.85-0.85-0.85H3.913
		c-0.467,0-0.85,0.382-0.85,0.85v8.041C3.063,27.328,3.735,28,4.564,28c0.568,0,1.062-0.316,1.316-0.782
		c0.036-0.067,0.063-0.208,0.423-0.208h15.478c0.34,0,0.403,0.14,0.438,0.205C22.475,27.682,22.968,28,23.537,28
		c0.829,0,1.461-0.672,1.461-1.501C24.998,26.383,24.998,26.354,24.998,26.161L24.998,26.161z M24.998,26.161"/>
	<path fill="#4993CF" d="M6.995,11.357c-0.01-0.139-0.125-0.248-0.266-0.248H5.955c-0.148,0-0.268,0.12-0.268,0.268v4.442
		c0,0.147,0.121,0.269,0.268,0.269h0.773c0.141,0,0.256-0.111,0.266-0.249c0.001-0.002,0.002-0.005,0.002-0.007v-4.467
		C6.997,11.362,6.996,11.36,6.995,11.357L6.995,11.357z M6.995,11.357"/>
	<path fill="#4993CF" d="M22.445,11.357c-0.01-0.139-0.125-0.248-0.266-0.248h-0.773c-0.147,0-0.269,0.12-0.269,0.268v4.442
		c0,0.147,0.121,0.269,0.269,0.269h0.773c0.141,0,0.256-0.111,0.266-0.249c0.002-0.002,0.002-0.005,0.002-0.007v-4.467
		C22.448,11.362,22.447,11.36,22.445,11.357L22.445,11.357z M22.445,11.357"/>
</g>
</svg>
