<?xml version="1.0" encoding="utf-8"?>
<!-- Generator: Adobe Illustrator 15.0.0, SVG Export Plug-In . SVG Version: 6.00 Build 0)  -->
<!DOCTYPE svg PUBLIC "-//W3C//DTD SVG 1.1//EN" "http://www.w3.org/Graphics/SVG/1.1/DTD/svg11.dtd">
<svg version="1.1" id="Layer_1" xmlns="http://www.w3.org/2000/svg" xmlns:xlink="http://www.w3.org/1999/xlink" x="0px" y="0px"
	 width="13px" height="60px" viewBox="0 0 13 60" enable-background="new 0 0 13 60" xml:space="preserve">
<g>
	<path fill="#3E3E3E" d="M0,2.935v8.938h13V0.5H0V2.935z M11.373,1.314h0.813v0.813h-0.813V1.314z M0.813,2.935h11.373v8.125H0.813
		V2.935z M0.813,2.935"/>
	<rect x="2.435" y="4.562" fill="#3E3E3E" width="1.627" height="0.814"/>
	<rect x="4.875" y="4.562" fill="#3E3E3E" width="5.686" height="0.814"/>
	<rect x="2.435" y="6.189" fill="#3E3E3E" width="1.627" height="0.81"/>
	<rect x="4.875" y="6.189" fill="#3E3E3E" width="5.686" height="0.81"/>
	<rect x="2.435" y="7.811" fill="#3E3E3E" width="1.627" height="0.813"/>
	<rect x="4.875" y="7.811" fill="#3E3E3E" width="5.686" height="0.813"/>
</g>
<g>
	<path fill="#3E3E3E" d="M6.469,15.5c-2.188,0-3.969,1.781-3.969,3.969c0,0.882,0.563,2.319,1.721,4.395
		c0.819,1.467,1.625,2.691,1.659,2.742l0.59,0.895l0.59-0.895c0.034-0.051,0.839-1.275,1.658-2.742
		c1.158-2.075,1.721-3.513,1.721-4.395C10.438,17.281,8.658,15.5,6.469,15.5L6.469,15.5z M6.469,21.5
		c-1.136,0-2.058-0.921-2.058-2.058c0-1.136,0.921-2.058,2.058-2.058s2.058,0.922,2.058,2.058C8.527,20.579,7.605,21.5,6.469,21.5
		L6.469,21.5z M6.469,21.5"/>
</g>
<g>
	<path fill="#3E3E3E" d="M4.697,37.164c0-0.163-0.135-0.296-0.302-0.296H3.342c-0.167,0-0.302,0.133-0.302,0.296v1.027
		c0,0.163,0.135,0.296,0.302,0.296h1.053c0.167,0,0.302-0.133,0.302-0.296V37.164z M4.697,37.164"/>
	<path fill="#3E3E3E" d="M7.329,37.164c0-0.163-0.136-0.296-0.302-0.296H5.974c-0.167,0-0.302,0.133-0.302,0.296v1.027
		c0,0.163,0.135,0.296,0.302,0.296h1.053c0.167,0,0.302-0.133,0.302-0.296V37.164z M7.329,37.164"/>
	<path fill="#3E3E3E" d="M9.961,37.164c0-0.163-0.135-0.296-0.302-0.296H8.606c-0.167,0-0.302,0.133-0.302,0.296v1.027
		c0,0.163,0.135,0.296,0.302,0.296h1.053c0.167,0,0.302-0.133,0.302-0.296V37.164z M9.961,37.164"/>
	<path fill="#3E3E3E" d="M4.697,39.732c0-0.163-0.135-0.294-0.302-0.294H3.342c-0.167,0-0.302,0.131-0.302,0.294v1.028
		c0,0.163,0.135,0.296,0.302,0.296h1.053c0.167,0,0.302-0.133,0.302-0.296V39.732z M4.697,39.732"/>
	<path fill="#3E3E3E" d="M7.329,39.732c0-0.163-0.136-0.294-0.302-0.294H5.974c-0.167,0-0.302,0.131-0.302,0.294v1.028
		c0,0.163,0.135,0.296,0.302,0.296h1.053c0.167,0,0.302-0.133,0.302-0.296V39.732z M7.329,39.732"/>
	<path fill="#3E3E3E" d="M2.471,33.456h0.822c0.25,0,0.452-0.197,0.452-0.441V30.44c0-0.244-0.202-0.44-0.452-0.44H2.471
		c-0.25,0-0.452,0.196-0.452,0.44v2.574C2.019,33.259,2.221,33.456,2.471,33.456L2.471,33.456z M2.471,33.456"/>
	<path fill="#3E3E3E" d="M9.686,33.456h0.823c0.248,0,0.45-0.197,0.45-0.441V30.44c0-0.244-0.202-0.44-0.45-0.44H9.686
		c-0.249,0-0.451,0.196-0.451,0.44v2.574C9.234,33.259,9.437,33.456,9.686,33.456L9.686,33.456z M9.686,33.456"/>
	<path fill="#3E3E3E" d="M9.961,39.749c0-0.163-0.135-0.294-0.302-0.294H8.606c-0.167,0-0.302,0.131-0.302,0.294v1.028
		c0,0.163,0.135,0.296,0.302,0.296h1.053c0.167,0,0.302-0.133,0.302-0.296V39.749z M9.961,39.749"/>
	<path fill="#3E3E3E" d="M11.843,31.462v1.57c0,0.711-0.59,1.283-1.315,1.283H9.696c-0.727,0-1.324-0.572-1.324-1.283v-1.575H4.628
		v1.575c0,0.711-0.597,1.283-1.324,1.283H2.474c-0.728,0-1.317-0.572-1.317-1.283v-1.57C0.522,31.48,0,31.995,0,32.625v9.204
		C0,42.473,0.534,43,1.192,43H11.81c0.657,0,1.191-0.528,1.191-1.171v-9.204C13.001,31.995,12.479,31.48,11.843,31.462
		L11.843,31.462z M11.457,41.256c0,0.278-0.229,0.503-0.515,0.503H2.036c-0.284,0-0.515-0.225-0.515-0.503v-4.755
		c0-0.276,0.23-0.503,0.515-0.503h8.907c0.285,0,0.515,0.227,0.515,0.503V41.256z M11.457,41.256"/>
</g>
<g>
	<path fill="#3E3E3E" d="M6.5,46.5c2.757,0,5,2.243,5,5s-2.243,5-5,5s-5-2.243-5-5S3.743,46.5,6.5,46.5 M6.5,45
		C2.91,45,0,47.909,0,51.5S2.91,58,6.5,58s6.5-2.909,6.5-6.5S10.09,45,6.5,45L6.5,45z"/>
	<path fill="#3E3E3E" d="M6.5,52.25c-0.414,0-0.75-0.336-0.75-0.75v-3.875c0-0.414,0.336-0.75,0.75-0.75s0.75,0.336,0.75,0.75V51.5
		C7.25,51.914,6.914,52.25,6.5,52.25z"/>
	<path fill="#3E3E3E" d="M9.344,52.25H6.5c-0.414,0-0.75-0.336-0.75-0.75s0.336-0.75,0.75-0.75h2.844c0.414,0,0.75,0.336,0.75,0.75
		S9.758,52.25,9.344,52.25z"/>
</g>
</svg>
