<?xml version="1.0" encoding="utf-8"?>
<!-- Generator: Adobe Illustrator 19.1.0, SVG Export Plug-In . SVG Version: 6.00 Build 0)  -->
<svg version="1.1" id="Layer_1" xmlns="http://www.w3.org/2000/svg" xmlns:xlink="http://www.w3.org/1999/xlink" x="0px" y="0px"
	 viewBox="0 0 32 32" style="enable-background:new 0 0 32 32;" xml:space="preserve">
<style type="text/css">
	.st0{fill:#FFFFFF;}
</style>
<g>
	<path class="st0" d="M2.6,10.5H0V0h10.5v2.6H2.6V10.5z M29.4,29.4h-7.9V32H32V21.5h-2.6V29.4z M21.5,2.6h7.9v7.9H32V0H21.5V2.6z
		 M2.6,21.5H0V32h10.5v-2.6H2.6V21.5z M24,14.7h-6.7V8h-2.6v6.7H8v2.6h6.7V24h2.6v-6.7H24V14.7z M24,14.7"/>
</g>
</svg>
